[
  {
    "id": 1 ,
    "refno": "KA-KESPEL-R-3",
    "desc": "Bimbingan Belajar",
    "nama_kegiatan": "Bimbingan Belajar",
    "cash_advance": "R-1701000001",
    "name_tbp": "KA",
    "name_tbd": "KESPEL",
    "bp": "KA",
    "bd": "KESPEL",
    "norek": "123456",
    "payment_method": "Transfer",
    "bank": "BCA",
    "an": "jhony",
    "tanggal": "18/12/2016",
    "total": "3265000",
    "ca": "0",
    "paid": "0",
    "settle": "3265000",
    "balance": "0"
  },
  {
    "id": 2 ,
    "refno": "PA-PJ-R-4",
    "desc": "Pemahaman Alitab Pagi",
    "cash_advance": "1701000001",
    "bp": "PJ",
    "bd": "PA",
    "norek": "123456",
    "payment_method": "Transfer",
    "bank": "BCA",
    "an": "jhony",
    "tanggal": "18/12/2016",
    "total": "57650000",
    "settle": "0",
    "ca": "16700000",
    "paid": "0",
    "settle": "0",
    "balance": "0"
  }
]