{
  "rows": [
    {
      "id": "400",
      "cost_name": "Snacks",
      "sub_total": 720000,
      "ca": 0,
      "settle": 720000,
      "paid": 0
    },
    {
      "id": "401",
      "cost_name": "Air Kemasan - gelas",
      "sub_total": 750000,
      "ca": 0,
      "settle": 750000,
      "paid": 0
    },
    {
      "id": "402",
      "cost_name": "Other - ATK",
      "sub_total": 200000,
      "ca": 0,
      "settle": 200000,
      "paid": 0
    },
    {
      "id": "403",
      "cost_name": "Other - Transport Pengajar Bimbel",
      "sub_total": 720000,
      "ca": 0,
      "settle": 720000,
      "paid": 0
    },
    {
      "id": "404",
      "cost_name": "Other - Kebersamaan & Pelawatan Bimbel",
      "sub_total": 875000,
      "ca": 0,
      "settle": 875000,
      "paid": 0
    }
  ],
  "footer": [
    {
      "cost_name": "Total",
      "sub_total": 3265000,
      "settle": "3265000"
    }
  ]
}