{
  "rows": [
    {
      "id": "338",
      "cash_advance": "1701000001",
      "bp": "PJ",
      "bd": "PA",
      "norek": "123456",
      "payment_method": "Transfer",
      "bank": "BCA",
      "an": "jhony",
      "sub_total": 57650000,
      "ca": 16700000,
      "settle": 0,
      "paid": 0
    }
  ],
  "footer": [
    {
      "cash_advance": "Total",
      "sub_total": 57650000,
      "ca": 16700000,
      "totla_paid": "0"
    }
  ]
}